Simple random sampling — sampling • radiant.design
…
#>  2 Maximo Manzi             0.989
#>  3 Antonietta Alfano        0.977
#>  4 Shawn Salmon             0.967
#>  5 Dalene Dubreuil          0.960
#>  6 Christine Chevalier      0.955
#>  7 Federico Fillion         0.935
#>  8 Hubert Hyer              0.932
#>  9 Sanford Steinfeldt       0.930
#> 10 Dagny Distefano          0.913
#> 
#> $df_name
#> [1] "rndnames"
#> 
#> $dataset
#> # A tibble: 100 x 2
#>    Names             rnd_number
#>    <chr>                  <dbl>
#>  1 Ervin Escalona        0.686 
#>  2 Allan Ammerman        0.417 
#>  3 Milton Mothershed     0.757 
#>  4 Deshawn Dawn          0.776 
#>  5 Jc Julius             0.574 
#>  6 Denver Delph          0.189 
#>  7 Jed Jameson           0.758 
#>  8 Zachariah Zeno        0.0927
#>  9 Cyril Class           0.622 
#> 10 Lauren Lukas          0.416 
#> # ... with 90 more rows
…
